<svg width="141" height="159" viewBox="0 0 141 159" version="1.1" xmlns="http://www.w3.org/2000/svg" xmlns:xlink="http://www.w3.org/1999/xlink">
<title>Group</title>
<desc>Created using Figma</desc>
<g id="Canvas" transform="translate(-2376 -195)">
<g id="Group">
<g id="Vector">
<use xlink:href="#path0_stroke" transform="translate(2392.47 221)" fill="#F2F2F2"/>
</g>
<g id="Ellipse">
<use xlink:href="#path1_fill" transform="translate(2376 195)" fill="#F2F2F2"/>
</g>
<g id="Ellipse">
<use xlink:href="#path1_fill" transform="translate(2496.42 195)" fill="#F2F2F2"/>
</g>
</g>
</g>
<defs>
<path id="path0_stroke" d="M 0 0L 9.1057 -8.56366L -12.5 0L 0 0ZM 54.5474 58L 45.4417 66.5637L 54.5474 76.2457L 63.6531 66.5637L 54.5474 58ZM 109.095 0L 121.595 0L 99.9892 -8.56366L 109.095 0ZM 12.5 133L 12.5 0L -12.5 0L -12.5 133L 12.5 133ZM -9.1057 8.56366L 45.4417 66.5637L 63.6531 49.4363L 9.1057 -8.56366L -9.1057 8.56366ZM 63.6531 66.5637L 118.201 8.56366L 99.9892 -8.56366L 45.4417 49.4363L 63.6531 66.5637ZM 96.5949 0L 96.5949 133L 121.595 133L 121.595 0L 96.5949 0Z"/>
<path id="path1_fill" d="M 20.5839 10C 20.5839 15.5228 15.9761 20 10.292 20C 4.60787 20 0 15.5228 0 10C 0 4.47715 4.60787 0 10.292 0C 15.9761 0 20.5839 4.47715 20.5839 10Z"/>
</defs>
</svg>
